{
  "project_info": {
    "project_number": "339380988783",
    "firebase_url": "https://phcode-25a80.firebaseio.com",
    "project_id": "phcode-25a80",
    "storage_bucket": "phcode-25a80.appspot.com"
  },
  "client": [
    {
      "client_info": {
        "mobilesdk_app_id": "1:339380988783:android:3c15dadfa7c0de9e0f969a",
        "android_client_info": {
          "package_name": "com.tkip.phcode2"
        }
      },
      "oauth_client": [
        {
          "client_id": "339380988783-8as3l5cvpaugs40t26p08vt1iehdlosf.apps.googleusercontent.com",
          "client_type": 1,
          "android_info": {
            "package_name": "com.tkip.phcode2",
            "certificate_hash": "13e7b43b787f8bb09d31e86629575f8b85f9b78f"
          }
        },
        {
          "client_id": "339380988783-apoacj0217duks30uedkqedrpgjdg5m6.apps.googleusercontent.com",
          "client_type": 1,
          "android_info": {
            "package_name": "com.tkip.phcode2",
            "certificate_hash": "6727112c4d046f9f916d01d648dcf89210e4ab51"
          }
        },
        {
          "client_id": "339380988783-o5eg7f3shcrneuovev44877test6f9qe.apps.googleusercontent.com",
          "client_type": 1,
          "android_info": {
            "package_name": "com.tkip.phcode2",
            "certificate_hash": "940ba45ffb401ba7dcbd083bb5182d6737311670"
          }
        },
        {
          "client_id": "339380988783-8hdk0jg1l0cuh2co0fv726rp3f3nem2i.apps.googleusercontent.com",
          "client_type": 3
        }
      ],
      "api_key": [
        {
          "current_key": "AIzaSyDXfidVywW7XMqzgZGGXTRGQwAAcB4zT9Y"
        }
      ],
      "services": {
        "appinvite_service": {
          "other_platform_oauth_client": [
            {
              "client_id": "339380988783-8hdk0jg1l0cuh2co0fv726rp3f3nem2i.apps.googleusercontent.com",
              "client_type": 3
            }
          ]
        }
      }
    }
  ],
  "configuration_version": "1"
}